{
  "project_info": {
    "project_number": "375001658447",
    "project_id": "android2-208e1",
    "storage_bucket": "android2-208e1.appspot.com"
  },
  "client": [
    {
      "client_info": {
        "mobilesdk_app_id": "1:375001658447:android:00aaf315181ba28359663a",
        "android_client_info": {
          "package_name": "com.example.xsuniaik"
        }
      },
      "oauth_client": [
        {
          "client_id": "375001658447-r6i7h6s20l7mks0vsfjp5fe3oode3pjg.apps.googleusercontent.com",
          "client_type": 1,
          "android_info": {
            "package_name": "com.example.xsuniaik",
            "certificate_hash": "59a7cca67ec5dc8ab87c40ff4cec19ec4c24cbad"
          }
        },
        {
          "client_id": "375001658447-icouuk8u770bru35blfotklcgevt8ubk.apps.googleusercontent.com",
          "client_type": 3
        }
      ],
      "api_key": [
        {
          "current_key": "AIzaSyDZbIbSAFZPeVeNBmeZDd9g1GNI7YYiquY"
        }
      ],
      "services": {
        "appinvite_service": {
          "other_platform_oauth_client": [
            {
              "client_id": "375001658447-icouuk8u770bru35blfotklcgevt8ubk.apps.googleusercontent.com",
              "client_type": 3
            }
          ]
        }
      }
    }
  ],
  "configuration_version": "1"
}